responses:
- response:
    auto_calculate_content_length: false
    body: '{"data": [{"type": "filing", "relationships": {"validation_messages": {"links":
      {"related": "/api/filings/4295/validation_messages"}}, "entity": {"links": {"related":
      "/api/entities/549300P8N0P6KDGTJ206"}}}, "attributes": {"sha256": "66b30c8be5875c2ceba7bcdf5e7cc9a74ee10bcab7dceffd7785db2b8cbda616",
      "country": "FI", "processed": "2023-04-19 10:43:24.521450", "fxo_id": "549300P8N0P6KDGTJ206-2022-12-31-ESEF-FI-1",
      "date_added": "2023-02-21 10:33:50.958280", "viewer_url": "/549300P8N0P6KDGTJ206/2022-12-31/ESEF/FI/1/549300P8N0P6KDGTJ206-2022-12-31-fi/reports/ixbrlviewer.html",
      "package_url": "/549300P8N0P6KDGTJ206/2022-12-31/ESEF/FI/1/549300P8N0P6KDGTJ206-2022-12-31-fi.zip",
      "json_url": "/549300P8N0P6KDGTJ206/2022-12-31/ESEF/FI/1/549300P8N0P6KDGTJ206-2022-12-31-fi.json",
      "error_count": 0, "report_url": "/549300P8N0P6KDGTJ206/2022-12-31/ESEF/FI/1/549300P8N0P6KDGTJ206-2022-12-31-fi/reports/549300P8N0P6KDGTJ206-2022-12-31-fi.xhtml",
      "period_end": "2022-12-31", "warning_count": 2, "inconsistency_count": 32},
      "id": "4295", "links": {"self": "/api/filings/4295"}}, {"type": "filing", "relationships":
      {"validation_messages": {"links": {"related": "/api/filings/4291/validation_messages"}},
      "entity": {"links": {"related": "/api/entities/9845006BFDJF0375E466"}}}, "attributes":
      {"sha256": "80d19dda3858d2c4872890884890789cdff7a2cde4ef1210b688984b8724cc66",
      "country": "FI", "processed": "2023-04-19 10:41:59.415919", "fxo_id": "9845006BFDJF0375E466-2022-12-31-ESEF-FI-1",
      "date_added": "2023-02-21 10:33:44.055676", "viewer_url": "/9845006BFDJF0375E466/2022-12-31/ESEF/FI/1/9845006BFDJF0375E466-2022-12-31-fi/reports/ixbrlviewer.html",
      "package_url": "/9845006BFDJF0375E466/2022-12-31/ESEF/FI/1/9845006BFDJF0375E466-2022-12-31-fi.zip",
      "json_url": "/9845006BFDJF0375E466/2022-12-31/ESEF/FI/1/9845006BFDJF0375E466-2022-12-31-fi.json",
      "error_count": 0, "report_url": "/9845006BFDJF0375E466/2022-12-31/ESEF/FI/1/9845006BFDJF0375E466-2022-12-31-fi/reports/9845006BFDJF0375E466-2022-12-31-fi.xhtml",
      "period_end": "2022-12-31", "warning_count": 1, "inconsistency_count": 8}, "id":
      "4291", "links": {"self": "/api/filings/4291"}}, {"type": "filing", "relationships":
      {"validation_messages": {"links": {"related": "/api/filings/459/validation_messages"}},
      "entity": {"links": {"related": "/api/entities/7437007ECQWVPCJIS695"}}}, "attributes":
      {"sha256": "1af37b7666a1d9a5b56ea53248644599f4eeb97746ad1d226367e16a415b3c53",
      "country": "FI", "processed": "2023-01-18 11:02:13.881287", "fxo_id": "7437007ECQWVPCJIS695-2020-12-31-ESEF-FI-0",
      "date_added": "2022-03-17 00:00:00", "viewer_url": null, "package_url": "/7437007ECQWVPCJIS695/2020-12-31/ESEF/FI/0/7437007ECQWVPCJIS695-2020-12-31.zip",
      "json_url": null, "error_count": 1, "report_url": null, "period_end": "2020-12-31",
      "warning_count": 0, "inconsistency_count": 0}, "id": "459", "links": {"self":
      "/api/filings/459"}}], "links": {"self": "https://filings.xbrl.org/api/filings?page%5Bsize%5D=3&filter%5Bcountry%5D=FI",
      "first": "https://filings.xbrl.org/api/filings?page%5Bsize%5D=3&filter%5Bcountry%5D=FI",
      "last": "https://filings.xbrl.org/api/filings?page%5Bsize%5D=3&filter%5Bcountry%5D=FI&page%5Bnumber%5D=199",
      "next": "https://filings.xbrl.org/api/filings?page%5Bsize%5D=3&filter%5Bcountry%5D=FI&page%5Bnumber%5D=2"},
      "meta": {"count": 595}, "jsonapi": {"version": "1.0"}}'
    content_type: text/plain
    method: GET
    status: 200
    url: https://filings.xbrl.org/api/filings?page%5Bsize%5D=3&filter%5Bcountry%5D=FI
