responses:
- response:
    auto_calculate_content_length: false
    body: '{"data": [{"type": "filing", "attributes": {"package_url": "/549300CSLHPO6Y1AZN37/2021-12-31/ESEF/SE/1/549300CSLHPO6Y1AZN37-2021-12-31.zip",
      "date_added": "2022-03-22 00:00:00", "country": "SE", "fxo_id": "549300CSLHPO6Y1AZN37-2021-12-31-ESEF-SE-1",
      "sha256": "fa9ed0bc7a9e61b4cdb2e9592a23a3b4decf6d5638db4407f3c6bb704080c38e",
      "viewer_url": null, "error_count": 1, "warning_count": 0, "inconsistency_count":
      0, "report_url": null, "period_end": "2021-12-31", "processed": "2023-01-18
      11:02:06.724768", "json_url": null}, "relationships": {"entity": {"links": {"related":
      "/api/entities/549300CSLHPO6Y1AZN37"}}, "validation_messages": {"links": {"related":
      "/api/filings/2/validation_messages"}}}, "id": "2", "links": {"self": "/api/filings/2"}},
      {"type": "filing", "attributes": {"package_url": "/549300CSLHPO6Y1AZN37/2021-12-31/ESEF/SE/0/Cloetta-2021-12-31-en.zip",
      "date_added": "2022-03-22 00:00:00", "country": "SE", "fxo_id": "549300CSLHPO6Y1AZN37-2021-12-31-ESEF-SE-0",
      "sha256": "e6483319297a09efcbd8bd3f4bd8df074fca8321cc7950482d0b7f9e67c65199",
      "viewer_url": "/549300CSLHPO6Y1AZN37/2021-12-31/ESEF/SE/0/Cloetta-2021-12-31-en/reports/ixbrlviewer.html",
      "error_count": 0, "warning_count": 4, "inconsistency_count": 3, "report_url":
      "/549300CSLHPO6Y1AZN37/2021-12-31/ESEF/SE/0/Cloetta-2021-12-31-en/reports/Cloetta-2021-12-31-en.xhtml",
      "period_end": "2021-12-31", "processed": "2023-01-18 11:02:06.712230", "json_url":
      "/549300CSLHPO6Y1AZN37/2021-12-31/ESEF/SE/0/Cloetta-2021-12-31-en.json"}, "relationships":
      {"entity": {"links": {"related": "/api/entities/549300CSLHPO6Y1AZN37"}}, "validation_messages":
      {"links": {"related": "/api/filings/1/validation_messages"}}}, "id": "1", "links":
      {"self": "/api/filings/1"}}], "links": {"self": "https://filings.xbrl.org/api/filings?page%5Bsize%5D=2&filter%5Bcountry%5D=SE&sort=date_added",
      "first": "https://filings.xbrl.org/api/filings?page%5Bsize%5D=2&filter%5Bcountry%5D=SE&sort=date_added",
      "last": "https://filings.xbrl.org/api/filings?page%5Bsize%5D=2&filter%5Bcountry%5D=SE&sort=date_added&page%5Bnumber%5D=354",
      "next": "https://filings.xbrl.org/api/filings?page%5Bsize%5D=2&filter%5Bcountry%5D=SE&sort=date_added&page%5Bnumber%5D=2"},
      "meta": {"count": 707}, "jsonapi": {"version": "1.0"}}'
    content_type: text/plain
    method: GET
    status: 200
    url: https://filings.xbrl.org/api/filings?page%5Bsize%5D=2&filter%5Bcountry%5D=SE&sort=date_added
- response:
    auto_calculate_content_length: false
    body: '{"data": [{"type": "filing", "attributes": {"package_url": "/549300CSLHPO6Y1AZN37/2021-12-31/ESEF/SE/1/549300CSLHPO6Y1AZN37-2021-12-31.zip",
      "date_added": "2022-03-22 00:00:00", "country": "SE", "fxo_id": "549300CSLHPO6Y1AZN37-2021-12-31-ESEF-SE-1",
      "sha256": "fa9ed0bc7a9e61b4cdb2e9592a23a3b4decf6d5638db4407f3c6bb704080c38e",
      "viewer_url": null, "error_count": 1, "warning_count": 0, "inconsistency_count":
      0, "report_url": null, "period_end": "2021-12-31", "processed": "2023-01-18
      11:02:06.724768", "json_url": null}, "relationships": {"entity": {"links": {"related":
      "/api/entities/549300CSLHPO6Y1AZN37"}}, "validation_messages": {"links": {"related":
      "/api/filings/2/validation_messages"}}}, "id": "2", "links": {"self": "/api/filings/2"}},
      {"type": "filing", "attributes": {"package_url": "/5493001NNP6HM67OVU09/2021-12-31/ESEF/SE/0/atri-2022-12-31-sv.zip",
      "date_added": "2022-03-22 00:00:00", "country": "SE", "fxo_id": "5493001NNP6HM67OVU09-2021-12-31-ESEF-SE-0",
      "sha256": "59d34876d9344c0fbce18a040410f4dbdfe14017961caa680d0f17fc768b4b4c",
      "viewer_url": "/5493001NNP6HM67OVU09/2021-12-31/ESEF/SE/0/atri-2022-12-31-sv/reports/ixbrlviewer.html",
      "error_count": 0, "warning_count": 5, "inconsistency_count": 17, "report_url":
      "/5493001NNP6HM67OVU09/2021-12-31/ESEF/SE/0/atri-2022-12-31-sv/reports/atri-2022-12-31-sv.xhtml",
      "period_end": "2021-12-31", "processed": "2023-01-18 11:02:43.184689", "json_url":
      "/5493001NNP6HM67OVU09/2021-12-31/ESEF/SE/0/atri-2022-12-31-sv.json"}, "relationships":
      {"entity": {"links": {"related": "/api/entities/5493001NNP6HM67OVU09"}}, "validation_messages":
      {"links": {"related": "/api/filings/2240/validation_messages"}}}, "id": "2240",
      "links": {"self": "/api/filings/2240"}}], "links": {"self": "https://filings.xbrl.org/api/filings?page%5Bsize%5D=2&filter%5Bcountry%5D=SE&sort=date_added&page%5Bnumber%5D=2",
      "first": "https://filings.xbrl.org/api/filings?page%5Bsize%5D=2&filter%5Bcountry%5D=SE&sort=date_added",
      "last": "https://filings.xbrl.org/api/filings?page%5Bsize%5D=2&filter%5Bcountry%5D=SE&sort=date_added&page%5Bnumber%5D=354",
      "prev": "https://filings.xbrl.org/api/filings?page%5Bsize%5D=2&filter%5Bcountry%5D=SE&sort=date_added&page%5Bnumber%5D=1",
      "next": "https://filings.xbrl.org/api/filings?page%5Bsize%5D=2&filter%5Bcountry%5D=SE&sort=date_added&page%5Bnumber%5D=3"},
      "meta": {"count": 707}, "jsonapi": {"version": "1.0"}}'
    content_type: text/plain
    method: GET
    status: 200
    url: https://filings.xbrl.org/api/filings?page%5Bsize%5D=2&filter%5Bcountry%5D=SE&sort=date_added&page%5Bnumber%5D=2
- response:
    auto_calculate_content_length: false
    body: '{"data": [{"type": "filing", "attributes": {"package_url": "/549300CSLHPO6Y1AZN37/2021-12-31/ESEF/SE/0/Cloetta-2021-12-31-en.zip",
      "date_added": "2022-03-22 00:00:00", "country": "SE", "fxo_id": "549300CSLHPO6Y1AZN37-2021-12-31-ESEF-SE-0",
      "sha256": "e6483319297a09efcbd8bd3f4bd8df074fca8321cc7950482d0b7f9e67c65199",
      "viewer_url": "/549300CSLHPO6Y1AZN37/2021-12-31/ESEF/SE/0/Cloetta-2021-12-31-en/reports/ixbrlviewer.html",
      "error_count": 0, "warning_count": 4, "inconsistency_count": 3, "report_url":
      "/549300CSLHPO6Y1AZN37/2021-12-31/ESEF/SE/0/Cloetta-2021-12-31-en/reports/Cloetta-2021-12-31-en.xhtml",
      "period_end": "2021-12-31", "processed": "2023-01-18 11:02:06.712230", "json_url":
      "/549300CSLHPO6Y1AZN37/2021-12-31/ESEF/SE/0/Cloetta-2021-12-31-en.json"}, "relationships":
      {"entity": {"links": {"related": "/api/entities/549300CSLHPO6Y1AZN37"}}, "validation_messages":
      {"links": {"related": "/api/filings/1/validation_messages"}}}, "id": "1", "links":
      {"self": "/api/filings/1"}}, {"type": "filing", "attributes": {"package_url":
      "/213800WRGLW3CY4MHW53/2021-12-31/ESEF/SE/0/ncc-2021-12-31-sv.zip", "date_added":
      "2022-03-22 00:00:00", "country": "SE", "fxo_id": "213800WRGLW3CY4MHW53-2021-12-31-ESEF-SE-0",
      "sha256": "d60524d460574d57409701eb78bb8053c85dd1d5b6032c187357c77c2578b720",
      "viewer_url": "/213800WRGLW3CY4MHW53/2021-12-31/ESEF/SE/0/ncc-2021-12-31-sv/reports/ixbrlviewer.html",
      "error_count": 0, "warning_count": 4, "inconsistency_count": 31, "report_url":
      "/213800WRGLW3CY4MHW53/2021-12-31/ESEF/SE/0/ncc-2021-12-31-sv/reports/ncc-2021-12-31-sv.xhtml",
      "period_end": "2021-12-31", "processed": "2023-01-18 11:02:52.337601", "json_url":
      "/213800WRGLW3CY4MHW53/2021-12-31/ESEF/SE/0/ncc-2021-12-31-sv.json"}, "relationships":
      {"entity": {"links": {"related": "/api/entities/213800WRGLW3CY4MHW53"}}, "validation_messages":
      {"links": {"related": "/api/filings/2825/validation_messages"}}}, "id": "2825",
      "links": {"self": "/api/filings/2825"}}], "links": {"self": "https://filings.xbrl.org/api/filings?page%5Bsize%5D=2&filter%5Bcountry%5D=SE&sort=date_added&page%5Bnumber%5D=3",
      "first": "https://filings.xbrl.org/api/filings?page%5Bsize%5D=2&filter%5Bcountry%5D=SE&sort=date_added",
      "last": "https://filings.xbrl.org/api/filings?page%5Bsize%5D=2&filter%5Bcountry%5D=SE&sort=date_added&page%5Bnumber%5D=354",
      "prev": "https://filings.xbrl.org/api/filings?page%5Bsize%5D=2&filter%5Bcountry%5D=SE&sort=date_added&page%5Bnumber%5D=2",
      "next": "https://filings.xbrl.org/api/filings?page%5Bsize%5D=2&filter%5Bcountry%5D=SE&sort=date_added&page%5Bnumber%5D=4"},
      "meta": {"count": 707}, "jsonapi": {"version": "1.0"}}'
    content_type: text/plain
    method: GET
    status: 200
    url: https://filings.xbrl.org/api/filings?page%5Bsize%5D=2&filter%5Bcountry%5D=SE&sort=date_added&page%5Bnumber%5D=3
