responses:
- response:
    auto_calculate_content_length: false
    body: '{"data": [{"type": "filing", "attributes": {"country": "FI", "sha256":
      "66b30c8be5875c2ceba7bcdf5e7cc9a74ee10bcab7dceffd7785db2b8cbda616", "viewer_url":
      "/549300P8N0P6KDGTJ206/2022-12-31/ESEF/FI/1/549300P8N0P6KDGTJ206-2022-12-31-fi/reports/ixbrlviewer.html",
      "package_url": "/549300P8N0P6KDGTJ206/2022-12-31/ESEF/FI/1/549300P8N0P6KDGTJ206-2022-12-31-fi.zip",
      "report_url": "/549300P8N0P6KDGTJ206/2022-12-31/ESEF/FI/1/549300P8N0P6KDGTJ206-2022-12-31-fi/reports/549300P8N0P6KDGTJ206-2022-12-31-fi.xhtml",
      "inconsistency_count": 32, "json_url": "/549300P8N0P6KDGTJ206/2022-12-31/ESEF/FI/1/549300P8N0P6KDGTJ206-2022-12-31-fi.json",
      "period_end": "2022-12-31", "processed": "2023-04-19 10:43:24.521450", "warning_count":
      2, "fxo_id": "549300P8N0P6KDGTJ206-2022-12-31-ESEF-FI-1", "error_count": 0,
      "date_added": "2023-02-21 10:33:50.958280"}, "relationships": {"entity": {"links":
      {"related": "/api/entities/549300P8N0P6KDGTJ206"}}, "validation_messages": {"links":
      {"related": "/api/filings/4295/validation_messages"}}}, "id": "4295", "links":
      {"self": "/api/filings/4295"}}, {"type": "filing", "attributes": {"country":
      "FI", "sha256": "80d19dda3858d2c4872890884890789cdff7a2cde4ef1210b688984b8724cc66",
      "viewer_url": "/9845006BFDJF0375E466/2022-12-31/ESEF/FI/1/9845006BFDJF0375E466-2022-12-31-fi/reports/ixbrlviewer.html",
      "package_url": "/9845006BFDJF0375E466/2022-12-31/ESEF/FI/1/9845006BFDJF0375E466-2022-12-31-fi.zip",
      "report_url": "/9845006BFDJF0375E466/2022-12-31/ESEF/FI/1/9845006BFDJF0375E466-2022-12-31-fi/reports/9845006BFDJF0375E466-2022-12-31-fi.xhtml",
      "inconsistency_count": 8, "json_url": "/9845006BFDJF0375E466/2022-12-31/ESEF/FI/1/9845006BFDJF0375E466-2022-12-31-fi.json",
      "period_end": "2022-12-31", "processed": "2023-04-19 10:41:59.415919", "warning_count":
      1, "fxo_id": "9845006BFDJF0375E466-2022-12-31-ESEF-FI-1", "error_count": 0,
      "date_added": "2023-02-21 10:33:44.055676"}, "relationships": {"entity": {"links":
      {"related": "/api/entities/9845006BFDJF0375E466"}}, "validation_messages": {"links":
      {"related": "/api/filings/4291/validation_messages"}}}, "id": "4291", "links":
      {"self": "/api/filings/4291"}}, {"type": "filing", "attributes": {"country":
      "FI", "sha256": "1af37b7666a1d9a5b56ea53248644599f4eeb97746ad1d226367e16a415b3c53",
      "viewer_url": null, "package_url": "/7437007ECQWVPCJIS695/2020-12-31/ESEF/FI/0/7437007ECQWVPCJIS695-2020-12-31.zip",
      "report_url": null, "inconsistency_count": 0, "json_url": null, "period_end":
      "2020-12-31", "processed": "2023-01-18 11:02:13.881287", "warning_count": 0,
      "fxo_id": "7437007ECQWVPCJIS695-2020-12-31-ESEF-FI-0", "error_count": 1, "date_added":
      "2022-03-17 00:00:00"}, "relationships": {"entity": {"links": {"related": "/api/entities/7437007ECQWVPCJIS695"}},
      "validation_messages": {"links": {"related": "/api/filings/459/validation_messages"}}},
      "id": "459", "links": {"self": "/api/filings/459"}}], "links": {"self": "https://filings.xbrl.org/api/filings?page%5Bsize%5D=3&filter%5Bcountry%5D=FI",
      "first": "https://filings.xbrl.org/api/filings?page%5Bsize%5D=3&filter%5Bcountry%5D=FI",
      "last": "https://filings.xbrl.org/api/filings?page%5Bsize%5D=3&filter%5Bcountry%5D=FI&page%5Bnumber%5D=252",
      "next": "https://filings.xbrl.org/api/filings?page%5Bsize%5D=3&filter%5Bcountry%5D=FI&page%5Bnumber%5D=2"},
      "meta": {"count": 755}, "jsonapi": {"version": "1.0"}}'
    content_type: text/plain
    method: GET
    status: 200
    url: https://filings.xbrl.org/api/filings?page%5Bsize%5D=3&filter%5Bcountry%5D=FI
