responses:
- response:
    auto_calculate_content_length: false
    body: '{"data": [{"type": "filing", "attributes": {"date_added": "2021-05-18 00:00:00",
      "country": "FI", "sha256": "ab0c60224c225ba3921188514ecd6c37af6a947f68a5c3a0c6eb34abfaae822b",
      "report_url": "/743700EPLUWXE25HGM03/2020-12-31/ESEF/FI/0/ENENTO-2020-12-31_EN/reports/ENENTO-2020-12-31
      EN.html", "fxo_id": "743700EPLUWXE25HGM03-2020-12-31-ESEF-FI-0", "error_count":
      0, "inconsistency_count": 19, "viewer_url": "/743700EPLUWXE25HGM03/2020-12-31/ESEF/FI/0/ENENTO-2020-12-31_EN/reports/ixbrlviewer.html",
      "json_url": "/743700EPLUWXE25HGM03/2020-12-31/ESEF/FI/0/ENENTO-2020-12-31 EN.json",
      "processed": "2023-01-18 11:02:18.936351", "warning_count": 0, "period_end":
      "2020-12-31", "package_url": "/743700EPLUWXE25HGM03/2020-12-31/ESEF/FI/0/ENENTO-2020-12-31_EN.zip"},
      "relationships": {"validation_messages": {"links": {"related": "/api/filings/710/validation_messages"}},
      "entity": {"links": {"related": "/api/entities/743700EPLUWXE25HGM03"}}}, "id":
      "710", "links": {"self": "/api/filings/710"}}, {"type": "filing", "attributes":
      {"date_added": "2021-05-18 00:00:00", "country": "FI", "sha256": "56789e4c2ea69ee8a72defe987a6228e2a637b8716928a715346a75e2f151597",
      "report_url": "/549300UWB1AIR85BM957/2020-12-31/ESEF/FI/0/OriolaCorporation-2020-12-31/reports/OriolaCorporation-2020-12-31.xhtml",
      "fxo_id": "549300UWB1AIR85BM957-2020-12-31-ESEF-FI-0", "error_count": 0, "inconsistency_count":
      15, "viewer_url": "/549300UWB1AIR85BM957/2020-12-31/ESEF/FI/0/OriolaCorporation-2020-12-31/reports/ixbrlviewer.html",
      "json_url": "/549300UWB1AIR85BM957/2020-12-31/ESEF/FI/0/OriolaCorporation-2020-12-31.json",
      "processed": "2023-01-18 11:02:14.903984", "warning_count": 0, "period_end":
      "2020-12-31", "package_url": "/549300UWB1AIR85BM957/2020-12-31/ESEF/FI/0/OriolaCorporation-2020-12-31.zip"},
      "relationships": {"validation_messages": {"links": {"related": "/api/filings/507/validation_messages"}},
      "entity": {"links": {"related": "/api/entities/549300UWB1AIR85BM957"}}}, "id":
      "507", "links": {"self": "/api/filings/507"}}, {"type": "filing", "attributes":
      {"date_added": "2021-05-18 00:00:00", "country": "FI", "sha256": "6db7a041751f89b78021f470a836fae94ba86e54402daca7395e04104e98c082",
      "report_url": "/7437007N96FK4N3WHT09/2020-12-31/ESEF/FI/0/7437007N96FK4N3WHT09-2020-12-31/reports/7437007N96FK4N3WHT09-2020-12-31.html",
      "fxo_id": "7437007N96FK4N3WHT09-2020-12-31-ESEF-FI-0", "error_count": 0, "inconsistency_count":
      10, "viewer_url": "/7437007N96FK4N3WHT09/2020-12-31/ESEF/FI/0/7437007N96FK4N3WHT09-2020-12-31/reports/ixbrlviewer.html",
      "json_url": "/7437007N96FK4N3WHT09/2020-12-31/ESEF/FI/0/7437007N96FK4N3WHT09-2020-12-31.json",
      "processed": "2023-01-18 11:02:31.555660", "warning_count": 1, "period_end":
      "2020-12-31", "package_url": "/7437007N96FK4N3WHT09/2020-12-31/ESEF/FI/0/7437007N96FK4N3WHT09-2020-12-31.zip"},
      "relationships": {"validation_messages": {"links": {"related": "/api/filings/1495/validation_messages"}},
      "entity": {"links": {"related": "/api/entities/7437007N96FK4N3WHT09"}}}, "id":
      "1495", "links": {"self": "/api/filings/1495"}}], "links": {"self": "https://filings.xbrl.org/api/filings?page%5Bsize%5D=3&filter%5Bcountry%5D=FI&sort=date_added",
      "first": "https://filings.xbrl.org/api/filings?page%5Bsize%5D=3&filter%5Bcountry%5D=FI&sort=date_added",
      "last": "https://filings.xbrl.org/api/filings?page%5Bsize%5D=3&filter%5Bcountry%5D=FI&sort=date_added&page%5Bnumber%5D=199",
      "next": "https://filings.xbrl.org/api/filings?page%5Bsize%5D=3&filter%5Bcountry%5D=FI&sort=date_added&page%5Bnumber%5D=2"},
      "meta": {"count": 595}, "jsonapi": {"version": "1.0"}}'
    content_type: text/plain
    method: GET
    status: 200
    url: https://filings.xbrl.org/api/filings?page%5Bsize%5D=3&filter%5Bcountry%5D=FI&sort=date_added
