responses:
- response:
    auto_calculate_content_length: false
    body: '{"data": [{"type": "filing", "attributes": {"country": "UA", "package_url":
      null, "json_url": "/EDRPOU-33163504/2020-12-31/UAIFRS/UA/0/33163504-2020-12-31.json",
      "viewer_url": "/EDRPOU-33163504/2020-12-31/UAIFRS/UA/0/ixbrlviewer.html", "period_end":
      "2020-12-31", "fxo_id": "EDRPOU-33163504-2020-12-31-UAIFRS-UA-0", "warning_count":
      0, "inconsistency_count": 0, "date_added": "2023-11-09 18:44:48.011975", "sha256":
      "a2afa6ad4cc8f064de4c8a8f7e364733ca48ca8b34b4c353cff681d905362df3", "processed":
      "2023-11-14 15:37:50.583287", "error_count": 0, "report_url": "/EDRPOU-33163504/2020-12-31/UAIFRS/UA/0/33163504-2020-12-31.html"},
      "id": "12113", "relationships": {"entity": {"links": {"related": "/api/entities/33163504"}},
      "validation_messages": {"links": {"related": "/api/filings/12113/validation_messages"}}},
      "links": {"self": "/api/filings/12113"}}, {"type": "filing", "attributes": {"country":
      "UA", "package_url": null, "json_url": "/EDRPOU-31169745/2020-12-31/UAIFRS/UA/0/31169745-2020-12-31.json",
      "viewer_url": "/EDRPOU-31169745/2020-12-31/UAIFRS/UA/0/ixbrlviewer.html", "period_end":
      "2020-12-31", "fxo_id": "EDRPOU-31169745-2020-12-31-UAIFRS-UA-0", "warning_count":
      0, "inconsistency_count": 0, "date_added": "2023-11-09 18:25:27.352757", "sha256":
      "6b2131b538bbc45c43346d65b60b92eb49b48ea2faac40ba3367e794f3a3cb5c", "processed":
      "2023-11-14 15:49:31.063116", "error_count": 0, "report_url": "/EDRPOU-31169745/2020-12-31/UAIFRS/UA/0/31169745-2020-12-31.html"},
      "id": "9930", "relationships": {"entity": {"links": {"related": "/api/entities/31169745"}},
      "validation_messages": {"links": {"related": "/api/filings/9930/validation_messages"}}},
      "links": {"self": "/api/filings/9930"}}, {"type": "filing", "attributes": {"country":
      "UA", "package_url": null, "json_url": "/EDRPOU-32033791/2020-12-31/UAIFRS/UA/0/32033791-2020-12-31.json",
      "viewer_url": "/EDRPOU-32033791/2020-12-31/UAIFRS/UA/0/ixbrlviewer.html", "period_end":
      "2020-12-31", "fxo_id": "EDRPOU-32033791-2020-12-31-UAIFRS-UA-0", "warning_count":
      0, "inconsistency_count": 0, "date_added": "2023-11-09 18:26:01.957777", "sha256":
      "efd83933387621614d796dc9d7da2512a87ff6338c94c2105614f3cf1d9c1a9f", "processed":
      "2023-11-14 15:49:47.074643", "error_count": 0, "report_url": "/EDRPOU-32033791/2020-12-31/UAIFRS/UA/0/32033791-2020-12-31.html"},
      "id": "9986", "relationships": {"entity": {"links": {"related": "/api/entities/32033791"}},
      "validation_messages": {"links": {"related": "/api/filings/9986/validation_messages"}}},
      "links": {"self": "/api/filings/9986"}}, {"type": "filing", "attributes": {"country":
      "UA", "package_url": null, "json_url": "/EDRPOU-31729918/2020-12-31/UAIFRS/UA/0/31729918-2020-12-31.json",
      "viewer_url": "/EDRPOU-31729918/2020-12-31/UAIFRS/UA/0/ixbrlviewer.html", "period_end":
      "2020-12-31", "fxo_id": "EDRPOU-31729918-2020-12-31-UAIFRS-UA-0", "warning_count":
      0, "inconsistency_count": 0, "date_added": "2023-11-09 18:25:46.878460", "sha256":
      "56c1dfbfd266c2ca44db2d62d21834c90edd575ba4faf944334664798fa6a1e1", "processed":
      "2023-11-14 15:49:59.157491", "error_count": 0, "report_url": "/EDRPOU-31729918/2020-12-31/UAIFRS/UA/0/31729918-2020-12-31.html"},
      "id": "9963", "relationships": {"entity": {"links": {"related": "/api/entities/31729918"}},
      "validation_messages": {"links": {"related": "/api/filings/9963/validation_messages"}}},
      "links": {"self": "/api/filings/9963"}}], "links": {"self": "https://filings.xbrl.org/api/filings?page%5Bsize%5D=4&filter%5Bcountry%5D=UA&sort=period_end%2Cprocessed",
      "first": "https://filings.xbrl.org/api/filings?page%5Bsize%5D=4&filter%5Bcountry%5D=UA&sort=period_end%2Cprocessed",
      "last": "https://filings.xbrl.org/api/filings?page%5Bsize%5D=4&filter%5Bcountry%5D=UA&sort=period_end%2Cprocessed&page%5Bnumber%5D=1062",
      "next": "https://filings.xbrl.org/api/filings?page%5Bsize%5D=4&filter%5Bcountry%5D=UA&sort=period_end%2Cprocessed&page%5Bnumber%5D=2"},
      "meta": {"count": 4245}, "jsonapi": {"version": "1.0"}}'
    content_type: text/plain
    method: GET
    status: 200
    url: https://filings.xbrl.org/api/filings?page%5Bsize%5D=4&filter%5Bcountry%5D=UA&sort=period_end%2Cprocessed
- response:
    auto_calculate_content_length: false
    body: '{"data": [{"type": "filing", "attributes": {"country": "UA", "package_url":
      null, "json_url": "/EDRPOU-31242924/2020-12-31/UAIFRS/UA/0/31242924-2020-12-31.json",
      "viewer_url": "/EDRPOU-31242924/2020-12-31/UAIFRS/UA/0/ixbrlviewer.html", "period_end":
      "2020-12-31", "fxo_id": "EDRPOU-31242924-2020-12-31-UAIFRS-UA-0", "warning_count":
      0, "inconsistency_count": 0, "date_added": "2023-11-09 18:25:29.103351", "sha256":
      "9679eed1b71faded0e23e1e22061d44a3f92f1c3c53ebc6ff2eff417d309cdfc", "processed":
      "2023-11-14 15:50:15.638527", "error_count": 0, "report_url": "/EDRPOU-31242924/2020-12-31/UAIFRS/UA/0/31242924-2020-12-31.html"},
      "id": "9933", "relationships": {"entity": {"links": {"related": "/api/entities/31242924"}},
      "validation_messages": {"links": {"related": "/api/filings/9933/validation_messages"}}},
      "links": {"self": "/api/filings/9933"}}, {"type": "filing", "attributes": {"country":
      "UA", "package_url": null, "json_url": "/EDRPOU-33268860/2020-12-31/UAIFRS/UA/0/33268860-2020-12-31.json",
      "viewer_url": "/EDRPOU-33268860/2020-12-31/UAIFRS/UA/0/ixbrlviewer.html", "period_end":
      "2020-12-31", "fxo_id": "EDRPOU-33268860-2020-12-31-UAIFRS-UA-0", "warning_count":
      0, "inconsistency_count": 0, "date_added": "2023-11-09 18:27:09.079056", "sha256":
      "6e29b008b71d42a8002f9412d703b51809531835b41da18065dc36a0c57a7feb", "processed":
      "2023-11-14 15:55:08.205915", "error_count": 0, "report_url": "/EDRPOU-33268860/2020-12-31/UAIFRS/UA/0/33268860-2020-12-31.html"},
      "id": "10113", "relationships": {"entity": {"links": {"related": "/api/entities/33268860"}},
      "validation_messages": {"links": {"related": "/api/filings/10113/validation_messages"}}},
      "links": {"self": "/api/filings/10113"}}, {"type": "filing", "attributes": {"country":
      "UA", "package_url": null, "json_url": "/EDRPOU-34892607/2020-12-31/UAIFRS/UA/0/34892607-2020-12-31.json",
      "viewer_url": "/EDRPOU-34892607/2020-12-31/UAIFRS/UA/0/ixbrlviewer.html", "period_end":
      "2020-12-31", "fxo_id": "EDRPOU-34892607-2020-12-31-UAIFRS-UA-0", "warning_count":
      0, "inconsistency_count": 0, "date_added": "2023-11-09 18:28:35.557833", "sha256":
      "e3c5695a3d436ef88a77809982793602600feda25ba8fbd514df980aa50699e6", "processed":
      "2023-11-14 15:55:23.131633", "error_count": 0, "report_url": "/EDRPOU-34892607/2020-12-31/UAIFRS/UA/0/34892607-2020-12-31.html"},
      "id": "10287", "relationships": {"entity": {"links": {"related": "/api/entities/34892607"}},
      "validation_messages": {"links": {"related": "/api/filings/10287/validation_messages"}}},
      "links": {"self": "/api/filings/10287"}}, {"type": "filing", "attributes": {"country":
      "UA", "package_url": null, "json_url": "/EDRPOU-33665584/2020-12-31/UAIFRS/UA/0/33665584-2020-12-31.json",
      "viewer_url": "/EDRPOU-33665584/2020-12-31/UAIFRS/UA/0/ixbrlviewer.html", "period_end":
      "2020-12-31", "fxo_id": "EDRPOU-33665584-2020-12-31-UAIFRS-UA-0", "warning_count":
      0, "inconsistency_count": 0, "date_added": "2023-11-09 18:16:57.827932", "sha256":
      "00f09bd625e5589734547d964b48aa4078cb1656832a8dab91437df4f6e663ef", "processed":
      "2023-11-14 15:55:36.405460", "error_count": 0, "report_url": "/EDRPOU-33665584/2020-12-31/UAIFRS/UA/0/33665584-2020-12-31.html"},
      "id": "9285", "relationships": {"entity": {"links": {"related": "/api/entities/33665584"}},
      "validation_messages": {"links": {"related": "/api/filings/9285/validation_messages"}}},
      "links": {"self": "/api/filings/9285"}}], "links": {"self": "https://filings.xbrl.org/api/filings?page%5Bsize%5D=4&filter%5Bcountry%5D=UA&sort=period_end%2Cprocessed&page%5Bnumber%5D=2",
      "first": "https://filings.xbrl.org/api/filings?page%5Bsize%5D=4&filter%5Bcountry%5D=UA&sort=period_end%2Cprocessed",
      "last": "https://filings.xbrl.org/api/filings?page%5Bsize%5D=4&filter%5Bcountry%5D=UA&sort=period_end%2Cprocessed&page%5Bnumber%5D=1062",
      "prev": "https://filings.xbrl.org/api/filings?page%5Bsize%5D=4&filter%5Bcountry%5D=UA&sort=period_end%2Cprocessed&page%5Bnumber%5D=1",
      "next": "https://filings.xbrl.org/api/filings?page%5Bsize%5D=4&filter%5Bcountry%5D=UA&sort=period_end%2Cprocessed&page%5Bnumber%5D=3"},
      "meta": {"count": 4245}, "jsonapi": {"version": "1.0"}}'
    content_type: text/plain
    method: GET
    status: 200
    url: https://filings.xbrl.org/api/filings?page%5Bsize%5D=4&filter%5Bcountry%5D=UA&sort=period_end%2Cprocessed&page%5Bnumber%5D=2
