responses:
- response:
    auto_calculate_content_length: false
    body: '{"data": [{"type": "filing", "attributes": {"json_url": "/2138002PKHUJIMVMYB13/2021-12-31/ESEF/LV/0/delfingroup-2021-12-31-lv.json",
      "error_count": 0, "country": "LV", "fxo_id": "2138002PKHUJIMVMYB13-2021-12-31-ESEF-LV-0",
      "period_end": "2021-12-31", "date_added": "2022-04-05 00:00:00", "viewer_url":
      "/2138002PKHUJIMVMYB13/2021-12-31/ESEF/LV/0/delfingroup-2021-12-31-lv/reports/ixbrlviewer.html",
      "inconsistency_count": 0, "package_url": "/2138002PKHUJIMVMYB13/2021-12-31/ESEF/LV/0/delfingroup-2021-12-31-lv.zip",
      "processed": "2023-01-18 11:02:34.486847", "sha256": "f9f97c5f5f877c204a6c72ff647a5f9c7fde86d7e69745b9de433bc66f86be9e",
      "report_url": "/2138002PKHUJIMVMYB13/2021-12-31/ESEF/LV/0/delfingroup-2021-12-31-lv/reports/delfingroup-2021-12-31-lv.xhtml",
      "warning_count": 2}, "relationships": {"validation_messages": {"links": {"related":
      "/api/filings/1685/validation_messages"}}, "entity": {"links": {"related": "/api/entities/2138002PKHUJIMVMYB13"}}},
      "id": "1685", "links": {"self": "/api/filings/1685"}}, {"type": "filing", "attributes":
      {"json_url": "/529900S1YDO0MHC8K318/2021-12-31/ESEF/LV/1/hansamatrix-2021-12-31-lv.json",
      "error_count": 0, "country": "LV", "fxo_id": "529900S1YDO0MHC8K318-2021-12-31-ESEF-LV-1",
      "period_end": "2021-12-31", "date_added": "2022-06-07 00:00:00", "viewer_url":
      "/529900S1YDO0MHC8K318/2021-12-31/ESEF/LV/1/hansamatrix-2021-12-31-lv/reports/ixbrlviewer.html",
      "inconsistency_count": 0, "package_url": "/529900S1YDO0MHC8K318/2021-12-31/ESEF/LV/1/hansamatrix-2021-12-31-lv.zip",
      "processed": "2023-01-18 11:02:15.330585", "sha256": "f60f67e32c45d2486b10d41bfefd9f82a2d4cca25c357e3a67f5b467e89d8103",
      "report_url": "/529900S1YDO0MHC8K318/2021-12-31/ESEF/LV/1/hansamatrix-2021-12-31-lv/reports/hansamatrix-2021-12-31-lv.xhtml",
      "warning_count": 0}, "relationships": {"validation_messages": {"links": {"related":
      "/api/filings/535/validation_messages"}}, "entity": {"links": {"related": "/api/entities/529900S1YDO0MHC8K318"}}},
      "id": "535", "links": {"self": "/api/filings/535"}}, {"type": "filing", "attributes":
      {"json_url": "/5493007HPQSSX8BJ4315/2021-12-31/ESEF/LV/0/altum-2021-12-31-en.json",
      "error_count": 0, "country": "LV", "fxo_id": "5493007HPQSSX8BJ4315-2021-12-31-ESEF-LV-0",
      "period_end": "2021-12-31", "date_added": "2022-04-05 00:00:00", "viewer_url":
      "/5493007HPQSSX8BJ4315/2021-12-31/ESEF/LV/0/altum-2021-12-31-en/reports/ixbrlviewer.html",
      "inconsistency_count": 0, "package_url": "/5493007HPQSSX8BJ4315/2021-12-31/ESEF/LV/0/altum-2021-12-31-en.zip",
      "processed": "2023-01-18 11:02:08.792721", "sha256": "aef33bddf3a84b65b50a239d54220dc6d7cd349a6faf66fda5d9ab30e3a112f2",
      "report_url": "/5493007HPQSSX8BJ4315/2021-12-31/ESEF/LV/0/altum-2021-12-31-en/reports/altum-2021-12-31-en.xhtml",
      "warning_count": 12}, "relationships": {"validation_messages": {"links": {"related":
      "/api/filings/147/validation_messages"}}, "entity": {"links": {"related": "/api/entities/5493007HPQSSX8BJ4315"}}},
      "id": "147", "links": {"self": "/api/filings/147"}}, {"type": "filing", "attributes":
      {"json_url": "/2138009Y59EAR7H1UO97/2022-12-31/ESEF/LV/0/citadele_banka-2022-12-31-lv.json",
      "error_count": 0, "country": "LV", "fxo_id": "2138009Y59EAR7H1UO97-2022-12-31-ESEF-LV-0",
      "period_end": "2022-12-31", "date_added": "2023-09-05 13:34:09.176296", "viewer_url":
      "/2138009Y59EAR7H1UO97/2022-12-31/ESEF/LV/0/citadele_banka-2022-12-31-lv/reports/ixbrlviewer.html",
      "inconsistency_count": 0, "package_url": "/2138009Y59EAR7H1UO97/2022-12-31/ESEF/LV/0/citadele_banka-2022-12-31-lv.zip",
      "processed": "2023-09-05 14:33:24.073400", "sha256": "a179f0b137059e7a88de67a00cbbaf49958b1f6e6a646e75581197b459d2d935",
      "report_url": "/2138009Y59EAR7H1UO97/2022-12-31/ESEF/LV/0/citadele_banka-2022-12-31-lv/reports/citadele_banka-2022-12-31-lv.xhtml",
      "warning_count": 0}, "relationships": {"validation_messages": {"links": {"related":
      "/api/filings/7634/validation_messages"}}, "entity": {"links": {"related": "/api/entities/2138009Y59EAR7H1UO97"}}},
      "id": "7634", "links": {"self": "/api/filings/7634"}}], "links": {"self": "https://filings.xbrl.org/api/filings?page%5Bsize%5D=4&filter%5Bcountry%5D=LV&sort=-sha256",
      "first": "https://filings.xbrl.org/api/filings?page%5Bsize%5D=4&filter%5Bcountry%5D=LV&sort=-sha256",
      "last": "https://filings.xbrl.org/api/filings?page%5Bsize%5D=4&filter%5Bcountry%5D=LV&sort=-sha256&page%5Bnumber%5D=7",
      "next": "https://filings.xbrl.org/api/filings?page%5Bsize%5D=4&filter%5Bcountry%5D=LV&sort=-sha256&page%5Bnumber%5D=2"},
      "meta": {"count": 28}, "jsonapi": {"version": "1.0"}}'
    content_type: text/plain
    method: GET
    status: 200
    url: https://filings.xbrl.org/api/filings?page%5Bsize%5D=4&filter%5Bcountry%5D=LV&sort=-sha256
