responses:
- response:
    auto_calculate_content_length: false
    body: '{"data": [{"type": "filing", "attributes": {"package_url": "/5493009GY1X8GQ66AM14/2020-12-31/ESEF/FI/0/5493009GY1X8GQ66AM14-2020-12-31.zip",
      "date_added": "2021-05-18 00:00:00", "country": "FI", "fxo_id": "5493009GY1X8GQ66AM14-2020-12-31-ESEF-FI-0",
      "sha256": "0916f1d9419a0881eba0c4606ba0c24928bc560452e8365e33e04ce12f222625",
      "viewer_url": "/5493009GY1X8GQ66AM14/2020-12-31/ESEF/FI/0/5493009GY1X8GQ66AM14-2020-12-31/reports/ixbrlviewer.html",
      "error_count": 0, "warning_count": 1, "inconsistency_count": 8, "report_url":
      "/5493009GY1X8GQ66AM14/2020-12-31/ESEF/FI/0/5493009GY1X8GQ66AM14-2020-12-31/reports/5493009GY1X8GQ66AM14-2020-12-31.html",
      "period_end": "2020-12-31", "processed": "2023-01-18 11:02:09.007499", "json_url":
      "/5493009GY1X8GQ66AM14/2020-12-31/ESEF/FI/0/5493009GY1X8GQ66AM14-2020-12-31.json"},
      "relationships": {"entity": {"links": {"related": "/api/entities/5493009GY1X8GQ66AM14"}},
      "validation_messages": {"links": {"related": "/api/filings/160/validation_messages"}}},
      "id": "160", "links": {"self": "/api/filings/160"}}, {"type": "filing", "attributes":
      {"package_url": "/5493009GY1X8GQ66AM14/2020-12-31/ESEF/FI/1/5493009GY1X8GQ66AM14-2020-12-31.zip",
      "date_added": "2022-03-17 00:00:00", "country": "FI", "fxo_id": "5493009GY1X8GQ66AM14-2020-12-31-ESEF-FI-1",
      "sha256": "c768b74fe533edb3323c8dc92c1f2e8ba4a39a91d3c601745a456392c3aab700",
      "viewer_url": "/5493009GY1X8GQ66AM14/2020-12-31/ESEF/FI/1/5493009GY1X8GQ66AM14-2020-12-31/reports/ixbrlviewer.html",
      "error_count": 0, "warning_count": 1, "inconsistency_count": 14, "report_url":
      "/5493009GY1X8GQ66AM14/2020-12-31/ESEF/FI/1/5493009GY1X8GQ66AM14-2020-12-31/reports/5493009GY1X8GQ66AM14-2020-12-31.html",
      "period_end": "2020-12-31", "processed": "2023-01-18 11:02:09.019722", "json_url":
      "/5493009GY1X8GQ66AM14/2020-12-31/ESEF/FI/1/5493009GY1X8GQ66AM14-2020-12-31.json"},
      "relationships": {"entity": {"links": {"related": "/api/entities/5493009GY1X8GQ66AM14"}},
      "validation_messages": {"links": {"related": "/api/filings/161/validation_messages"}}},
      "id": "161", "links": {"self": "/api/filings/161"}}], "links": {"self": "https://filings.xbrl.org/api/filings?page%5Bsize%5D=2&filter%5Bcountry%5D=FI&sort=period_end%2Cprocessed",
      "first": "https://filings.xbrl.org/api/filings?page%5Bsize%5D=2&filter%5Bcountry%5D=FI&sort=period_end%2Cprocessed",
      "last": "https://filings.xbrl.org/api/filings?page%5Bsize%5D=2&filter%5Bcountry%5D=FI&sort=period_end%2Cprocessed&page%5Bnumber%5D=298",
      "next": "https://filings.xbrl.org/api/filings?page%5Bsize%5D=2&filter%5Bcountry%5D=FI&sort=period_end%2Cprocessed&page%5Bnumber%5D=2"},
      "meta": {"count": 595}, "jsonapi": {"version": "1.0"}}'
    content_type: text/plain
    method: GET
    status: 200
    url: https://filings.xbrl.org/api/filings?page%5Bsize%5D=2&filter%5Bcountry%5D=FI&sort=period_end%2Cprocessed
