responses:
- response:
    auto_calculate_content_length: false
    body: '{"data": [{"type": "filing", "attributes": {"json_url": "/097900BGMO0000055872/2020-12-31/ESEF/LV/1/latvijasgze-2020-12-31.json",
      "error_count": 0, "country": "LV", "fxo_id": "097900BGMO0000055872-2020-12-31-ESEF-LV-1",
      "period_end": "2020-12-31", "date_added": "2021-05-19 00:00:00", "viewer_url":
      "/097900BGMO0000055872/2020-12-31/ESEF/LV/1/latvijasgze-2020-12-31/reports/ixbrlviewer.html",
      "inconsistency_count": 1, "package_url": "/097900BGMO0000055872/2020-12-31/ESEF/LV/1/latvijasgze-2020-12-31.zip",
      "processed": "2023-01-18 11:02:15.544819", "sha256": "004ec2220d97d830ac0b8b42e5541f7d1af3bbeca12487c2e010acca3f8e985d",
      "report_url": "/097900BGMO0000055872/2020-12-31/ESEF/LV/1/latvijasgze-2020-12-31/reports/latvijasgze-2020-12-31.xhtml",
      "warning_count": 7}, "relationships": {"validation_messages": {"links": {"related":
      "/api/filings/549/validation_messages"}}, "entity": {"links": {"related": "/api/entities/097900BGMO0000055872"}}},
      "id": "549", "links": {"self": "/api/filings/549"}}, {"type": "filing", "attributes":
      {"json_url": "/894500QUY4PL0DT0MP25/2022-12-31/ESEF/LV/1/storentinvestmentsas-2022-12-31-en.json",
      "error_count": 0, "country": "LV", "fxo_id": "894500QUY4PL0DT0MP25-2022-12-31-ESEF-LV-1",
      "period_end": "2022-12-31", "date_added": "2023-09-05 13:41:22.452116", "viewer_url":
      "/894500QUY4PL0DT0MP25/2022-12-31/ESEF/LV/1/storentinvestmentsas-2022-12-31-en/reports/ixbrlviewer.html",
      "inconsistency_count": 0, "package_url": "/894500QUY4PL0DT0MP25/2022-12-31/ESEF/LV/1/storentinvestmentsas-2022-12-31-en.zip",
      "processed": "2023-09-05 16:22:00.614607", "sha256": "07a7b99f1fe7c657b99a29de8fbf099e05cacc486343b7032dfb738b8a119dce",
      "report_url": "/894500QUY4PL0DT0MP25/2022-12-31/ESEF/LV/1/storentinvestmentsas-2022-12-31-en/reports/storentinvestmentsas-2022-12-31-en.xhtml",
      "warning_count": 0}, "relationships": {"validation_messages": {"links": {"related":
      "/api/filings/7828/validation_messages"}}, "entity": {"links": {"related": "/api/entities/894500QUY4PL0DT0MP25"}}},
      "id": "7828", "links": {"self": "/api/filings/7828"}}, {"type": "filing", "attributes":
      {"json_url": "/64883LC3F12690GATG87/2022-12-31/ESEF/LV/0/asast-2022-12-31-lv.json",
      "error_count": 0, "country": "LV", "fxo_id": "64883LC3F12690GATG87-2022-12-31-ESEF-LV-0",
      "period_end": "2022-12-31", "date_added": "2023-09-05 13:34:13.094471", "viewer_url":
      "/64883LC3F12690GATG87/2022-12-31/ESEF/LV/0/asast-2022-12-31-lv/reports/ixbrlviewer.html",
      "inconsistency_count": 0, "package_url": "/64883LC3F12690GATG87/2022-12-31/ESEF/LV/0/asast-2022-12-31-lv.zip",
      "processed": "2023-09-05 14:34:00.141509", "sha256": "130e2ca3937e70d7ca7e4b88e1ef6591481343fb4680d737f278f2355750f261",
      "report_url": "/64883LC3F12690GATG87/2022-12-31/ESEF/LV/0/asast-2022-12-31-lv/reports/asast-2022-12-31-lv.xhtml",
      "warning_count": 3}, "relationships": {"validation_messages": {"links": {"related":
      "/api/filings/7635/validation_messages"}}, "entity": {"links": {"related": "/api/entities/64883LC3F12690GATG87"}}},
      "id": "7635", "links": {"self": "/api/filings/7635"}}, {"type": "filing", "attributes":
      {"json_url": "/5493007HPQSSX8BJ4315/2021-12-31/ESEF/LV/1/altum-2021-12-31-lv.json",
      "error_count": 0, "country": "LV", "fxo_id": "5493007HPQSSX8BJ4315-2021-12-31-ESEF-LV-1",
      "period_end": "2021-12-31", "date_added": "2022-04-05 00:00:00", "viewer_url":
      "/5493007HPQSSX8BJ4315/2021-12-31/ESEF/LV/1/altum-2021-12-31-lv/reports/ixbrlviewer.html",
      "inconsistency_count": 0, "package_url": "/5493007HPQSSX8BJ4315/2021-12-31/ESEF/LV/1/altum-2021-12-31-lv.zip",
      "processed": "2023-01-18 11:02:08.807443", "sha256": "1b6bcefc5f046018ebc7b98acc0b8168f867d80f132012f9718fe379ddf736ab",
      "report_url": "/5493007HPQSSX8BJ4315/2021-12-31/ESEF/LV/1/altum-2021-12-31-lv/reports/altum-2021-12-31-lv.xhtml",
      "warning_count": 12}, "relationships": {"validation_messages": {"links": {"related":
      "/api/filings/148/validation_messages"}}, "entity": {"links": {"related": "/api/entities/5493007HPQSSX8BJ4315"}}},
      "id": "148", "links": {"self": "/api/filings/148"}}], "links": {"self": "https://filings.xbrl.org/api/filings?page%5Bsize%5D=4&filter%5Bcountry%5D=LV&sort=sha256",
      "first": "https://filings.xbrl.org/api/filings?page%5Bsize%5D=4&filter%5Bcountry%5D=LV&sort=sha256",
      "last": "https://filings.xbrl.org/api/filings?page%5Bsize%5D=4&filter%5Bcountry%5D=LV&sort=sha256&page%5Bnumber%5D=7",
      "next": "https://filings.xbrl.org/api/filings?page%5Bsize%5D=4&filter%5Bcountry%5D=LV&sort=sha256&page%5Bnumber%5D=2"},
      "meta": {"count": 28}, "jsonapi": {"version": "1.0"}}'
    content_type: text/plain
    method: GET
    status: 200
    url: https://filings.xbrl.org/api/filings?page%5Bsize%5D=4&filter%5Bcountry%5D=LV&sort=sha256
